<svg width="14" height="15" viewBox="0 0 14 15" fill="none" xmlns="http://www.w3.org/2000/svg">
<path d="M12.3335 1.50033H11.6668V0.166992H10.3335V1.50033H3.66683V0.166992H2.3335V1.50033H1.66683C0.933496 1.50033 0.333496 2.10033 0.333496 2.83366V13.5003C0.333496 14.2337 0.933496 14.8337 1.66683 14.8337H12.3335C13.0668 14.8337 13.6668 14.2337 13.6668 13.5003V2.83366C13.6668 2.10033 13.0668 1.50033 12.3335 1.50033ZM12.3335 13.5003H1.66683V6.16699H12.3335V13.5003ZM12.3335 4.83366H1.66683V2.83366H12.3335V4.83366Z" fill="#9E1C2C"/>
</svg>
