<svg width="14" height="12" viewBox="0 0 14 12" fill="none" xmlns="http://www.w3.org/2000/svg">
<path d="M13.6668 2.00033C13.6668 1.26699 13.0668 0.666992 12.3335 0.666992H1.66683C0.933496 0.666992 0.333496 1.26699 0.333496 2.00033V10.0003C0.333496 10.7337 0.933496 11.3337 1.66683 11.3337H12.3335C13.0668 11.3337 13.6668 10.7337 13.6668 10.0003V2.00033ZM12.3335 2.00033L7.00016 5.33366L1.66683 2.00033H12.3335ZM12.3335 10.0003H1.66683V3.33366L7.00016 6.66699L12.3335 3.33366V10.0003Z" fill="#949494"/>
</svg>
